…
## 1. FIFA 18 Ratings - Interactive Plot
### Data Preparation


``` r
#Prepare the dataset for 30 best rated players with relevant pace attributes annd player information
fifa_top30 <- fifa %>%
  arrange(desc(overall)) %>%
  slice(1:30) %>%
  select(name, nationality, club, age, overall, sprint_speed, acceleration, stamina)
fifa_top30
```

```
## # A tibble: 30 × 8
##    name        nationality club    age overall sprint_speed acceleration stamina
##    <chr>       <chr>       <chr> <dbl>   <dbl>        <dbl>        <dbl>   <dbl>
##  1 Cristiano … Portugal    Real…    32      94           91           89      92
##  2 L. Messi    Argentina   FC B…    30      93           87           92      73
##  3 Neymar      Brazil      Pari…    25      92           90           94      78
##  4 L. Suárez   Uruguay     FC B…    30      92           77           88      89
##  5 M. Neuer    Germany     FC B…    31      92           61           58      44
##  6 R. Lewando… Poland      FC B…    28      91           83           79      79
##  7 De Gea      Spain       Manc…    26      90           58           57      40
##  8 E. Hazard   Belgium     Chel…    26      90           87           93      79
##  9 T. Kroos    Germany     Real…    27      90           52           60      77
## 10 G. Higuaín  Argentina   Juve…    29      90           80           78      72
## # ℹ 20 more rows
```
…
